\relax 
\providecommand\hyper@newdestlabel[2]{}
\providecommand\HyperFirstAtBeginDocument{\AtBeginDocument}
\HyperFirstAtBeginDocument{\ifx\hyper@anchor\@undefined
\global\let\oldcontentsline\contentsline
\gdef\contentsline#1#2#3#4{\oldcontentsline{#1}{#2}{#3}}
\global\let\oldnewlabel\newlabel
\gdef\newlabel#1#2{\newlabelxx{#1}#2}
\gdef\newlabelxx#1#2#3#4#5#6{\oldnewlabel{#1}{{#2}{#3}}}
\AtEndDocument{\ifx\hyper@anchor\@undefined
\let\contentsline\oldcontentsline
\let\newlabel\oldnewlabel
\fi}
\fi}
\global\let\hyper@last\relax 
\gdef\HyperFirstAtBeginDocument#1{#1}
\providecommand\HyField@AuxAddToFields[1]{}
\providecommand\HyField@AuxAddToCoFields[2]{}
\@writefile{toc}{\contentsline {section}{\numberline {1}Infrastructure}{3}{section.1}}
\newlabel{sec:Introduction}{{1}{3}{Infrastructure}{section.1}{}}
\@writefile{lof}{\contentsline {figure}{\numberline {1}{\ignorespaces Laboratory views shown (from top to bottom), starting with Lab24, Lab23 left view upon entry and right view and finally the workarea in room 161/1-009.\relax }}{3}{figure.caption.2}}
\providecommand*\caption@xref[2]{\@setref\relax\@undefined{#1}}
\newlabel{Labs}{{1}{3}{Laboratory views shown (from top to bottom), starting with Lab24, Lab23 left view upon entry and right view and finally the workarea in room 161/1-009.\relax }{figure.caption.2}{}}
\@writefile{toc}{\contentsline {section}{\numberline {2}Basic software installations}{3}{section.2}}
\@writefile{toc}{\contentsline {subsection}{\numberline {2.1}Installing MacPorts}{3}{subsection.2.1}}
\@writefile{toc}{\contentsline {subsubsection}{\numberline {2.1.1}Python}{3}{subsubsection.2.1.1}}
\@writefile{toc}{\contentsline {subsubsection}{\numberline {2.1.2}PyROOT}{3}{subsubsection.2.1.2}}
\newlabel{sec:PyRoot}{{2.1.2}{3}{PyROOT}{subsubsection.2.1.2}{}}
\citation{XQuartz}
\citation{Linux}
\@writefile{lof}{\contentsline {figure}{\numberline {2}{\ignorespaces The group website contains aggregated information on the entire team's work and is a good source for reference material: \textit  {www.ade-pixel-group.web.cern.ch}\relax }}{4}{figure.caption.3}}
\newlabel{groupWebsite}{{2}{4}{The group website contains aggregated information on the entire team's work and is a good source for reference material: \textit {www.ade-pixel-group.web.cern.ch}\relax }{figure.caption.3}{}}
\@writefile{toc}{\contentsline {subsection}{\numberline {2.2}ROOT installation}{4}{subsection.2.2}}
\newlabel{sec:ROOT installation}{{2.2}{4}{ROOT installation}{subsection.2.2}{}}
\@writefile{toc}{\contentsline {subsection}{\numberline {2.3}XQuartz}{4}{subsection.2.3}}
\@writefile{toc}{\contentsline {subsection}{\numberline {2.4}Mac Command Line Tools \& Xcode}{4}{subsection.2.4}}
\@writefile{toc}{\contentsline {section}{\numberline {3}Basic Linux Commands}{4}{section.3}}
\citation{Putty}
\citation{FileZilla}
\@writefile{toc}{\contentsline {section}{\numberline {4}LXPLUS}{6}{section.4}}
\newlabel{lxplus}{{4}{6}{LXPLUS}{section.4}{}}
\@writefile{toc}{\contentsline {section}{\numberline {5}Screen for Linux}{6}{section.5}}
\@writefile{toc}{\contentsline {section}{\numberline {6}PuTTY}{6}{section.6}}
\newlabel{sec:PuTTY}{{6}{6}{PuTTY}{section.6}{}}
\@writefile{lof}{\contentsline {figure}{\numberline {3}{\ignorespaces PuTTY configuration.\relax }}{7}{figure.caption.4}}
\newlabel{Putty}{{3}{7}{PuTTY configuration.\relax }{figure.caption.4}{}}
\@writefile{toc}{\contentsline {section}{\numberline {7}Using FileZilla for easy file transfers}{7}{section.7}}
\newlabel{sec:Filezilla}{{7}{7}{Using FileZilla for easy file transfers}{section.7}{}}
\@writefile{lof}{\contentsline {figure}{\numberline {4}{\ignorespaces FileZilla view on OSX.\relax }}{7}{figure.caption.5}}
\newlabel{FileZilla}{{4}{7}{FileZilla view on OSX.\relax }{figure.caption.5}{}}
\@writefile{toc}{\contentsline {section}{\numberline {8}Source code management using Gitlab}{7}{section.8}}
\newlabel{sec:Source code management using Gitlab}{{8}{7}{Source code management using Gitlab}{section.8}{}}
\@writefile{toc}{\contentsline {subsection}{\numberline {8.1}Git global setup}{8}{subsection.8.1}}
\@writefile{toc}{\contentsline {subsection}{\numberline {8.2}Create a new repository}{8}{subsection.8.2}}
\@writefile{toc}{\contentsline {subsection}{\numberline {8.3}Existing folder}{8}{subsection.8.3}}
\@writefile{toc}{\contentsline {subsection}{\numberline {8.4}Existing Git repository}{8}{subsection.8.4}}
\@writefile{toc}{\contentsline {section}{\numberline {9}Documenting in \LaTeX  }{8}{section.9}}
\newlabel{sec:Documenting in LaTeX}{{9}{8}{Documenting in \LaTeX }{section.9}{}}
\@writefile{toc}{\contentsline {section}{\numberline {10}Remote Communication}{8}{section.10}}
\@writefile{toc}{\contentsline {subsection}{\numberline {10.1}RS232 via PySerial}{8}{subsection.10.1}}
\newlabel{RS232 via PySerial}{{10.1}{8}{RS232 via PySerial}{subsection.10.1}{}}
\@writefile{toc}{\contentsline {section}{\numberline {11}Using the XIMEA microscopy camera}{8}{section.11}}
\newlabel{sec:ximea}{{11}{8}{Using the XIMEA microscopy camera}{section.11}{}}
\@writefile{lof}{\contentsline {figure}{\numberline {5}{\ignorespaces Ximea camera software interface.\relax }}{9}{figure.caption.6}}
\newlabel{XimeaWindow}{{5}{9}{Ximea camera software interface.\relax }{figure.caption.6}{}}
\@writefile{toc}{\contentsline {section}{\numberline {12}Exercises}{9}{section.12}}
\@writefile{toc}{\contentsline {subsection}{\numberline {12.1}Create a power supply python class definition}{9}{subsection.12.1}}
\newlabel{Power supply python class}{{12.1}{9}{Create a power supply python class definition}{subsection.12.1}{}}
\bibstyle{unsrt}
\bibdata{StudentFastTrack}
\bibcite{XQuartz}{1}
\@writefile{toc}{\contentsline {subsection}{\numberline {12.2}Current vs Voltage scan (with signal handler) \& Save to file}{10}{subsection.12.2}}
\@writefile{toc}{\contentsline {subsection}{\numberline {12.3}Plot the above IV scan in PyROOT}{10}{subsection.12.3}}
\@writefile{toc}{\contentsline {subsection}{\numberline {12.4}Integrate scan results plot with Elog \& submit IV plot to Elog}{10}{subsection.12.4}}
\@writefile{toc}{\contentsline {subsection}{\numberline {12.5}Remote access via SSH and Screen}{10}{subsection.12.5}}
\@writefile{toc}{\contentsline {subsection}{\numberline {12.6}setup.sh file preparation}{10}{subsection.12.6}}
\bibcite{Linux}{2}
\bibcite{Putty}{3}
\bibcite{FileZilla}{4}
\@writefile{toc}{\contentsline {subsection}{\numberline {12.7}Archive code onto a Gitlab repository}{11}{subsection.12.7}}
\@writefile{toc}{\contentsline {subsection}{\numberline {12.8}CMAKE package preparation}{11}{subsection.12.8}}
